[gd_resource type="Resource" script_class="Mineral_Limits" load_steps=3 format=3 uid="uid://dr0l2wmx6w0kk"]

[ext_resource type="Script" path="res://Minerals/Mineral.gd" id="1"]

[sub_resource type="Curve" id="1"]
_data = [Vector2(0, 1), 0.0, 0.0, 0, 0, Vector2(0.243243, 1), 0.0, 0.0, 0, 0, Vector2(0.5, 0), 0.0, 0.0, 0, 0]
point_count = 3

[resource]
script = ExtResource("1")
rotate = true
max_spawn_rate = 0.2
spawn_limits = SubResource("1")
