[gd_resource type="Resource" script_class="Mineral_Limits" load_steps=3 format=3 uid="uid://d2gu0pgj25u0n"]

[ext_resource type="Script" path="res://Minerals/Mineral.gd" id="1"]

[sub_resource type="Curve" id="1"]
_data = [Vector2(0, 0), 0.0, 0.0, 0, 0, Vector2(0.158784, 0.0522727), 0.0, 0.0, 0, 0, Vector2(0.38639, 1), 0.0, 0.0, 0, 0, Vector2(0.85473, 1), 0.0, 0.0, 0, 0, Vector2(1, 0.234091), 0.0, 0.0, 0, 0]
point_count = 5

[resource]
script = ExtResource("1")
rotate = true
max_spawn_rate = 0.1
spawn_limits = SubResource("1")
